{
    "waves":
    [
        {"type" : "Slave", "amount" : "5"},
        {"type" : "ArabArcher", "amount" : "5"},
        {"type" : "Maceman", "amount" : "5"},
        {"type" : "Spearman", "amount" : "5"},
        {"type" : "ArabArcher", "amount" : "5"},
        {"type" : "Spearman", "amount" : "5"}
    ]
}