{
	
	"archers":
	[
		{"name" : "Archer", "armor" : "0", "damage" : "0", "accuracy" : "0", "state" : "1"},
		{"name" : "Arab Archer", "armor" : "0", "damage" : "0", "accuracy" : "0", "state" : "0"},
		{"name" : "Crossbowman", "armor" : "0", "damage" : "0", "accuracy" : "0", "state" : "0"}
	]
	,
	"archer" : "0",
	"height" : "0",
	"defence" : "0",

}